<!Doctype html>
<html>
    <head><title>BACKGROOUND CHANGE</title></head>
    <body>
        <center><h3>Changing Background Color</h3></center>
        <button type="button" onclick="myfunction()">single click</button>
        <button type="button" ondblclick="my2function()">double click</button>
        <script>
            function myfunction()
            {
                document.body.style.backgroundColor="red";
            }
            function my2function()
            {
                document.body.style.backgroundColor="green";
            }
        </script>
    </body>
</html>